{
    "firespray31": {
        "attack_front": 3,
        "attack_rear": 3,
        "attack_singleMobile": 0,
        "attack_doubleMobile": 0,
        "agility": 3,
        "hull": 6,
        "shield": 4,
        "actions": [
            [
                "foc",
                ""
            ],
            [
                "tlk",
                ""
            ],
            [
                "",
                "rei"
            ],
            [
                "boo",
                ""
            ],
            [
                "",
                ""
            ]
        ],
        "shipAbility": ""
    },
    "protectoratestarfighter": {
        "attack_front": 3,
        "attack_rear": 0,
        "attack_singleMobile": 0,
        "attack_doubleMobile": 0,
        "agility": 3,
        "hull": 4,
        "shield": 0,
        "actions": [
            [
                "foc",
                ""
            ],
            [
                "tlk",
                ""
            ],
            [
                "bar",
                "foc"
            ],
            [
                "boo",
                "foc"
            ],
            [
                "",
                ""
            ]
        ],
        "shipAbility": "** * CONCORDIA FACEOFF * ** : When you defend or perform an attack, if the attack range is 1, you may roll 1 additional die."
    },
    "t70xwing": {
        "attack_front": 3,
        "attack_rear": 0,
        "attack_singleMobile": 0,
        "attack_doubleMobile": 0,
        "agility": 3,
        "hull": 4,
        "shield": 3,
        "actions": [
            [
                "foc",
                ""
            ],
            [
                "tlk",
                ""
            ],
            [
                "boo",
                ""
            ],
            [
                "",
                ""
            ],
            [
                "",
                ""
            ]
        ],
        "shipAbility": "Weapon hardpoint"
    },
    "tieadvanced": {
        "attack_front": 2,
        "attack_rear": 0,
        "attack_singleMobile": 0,
        "attack_doubleMobile": 0,
        "agility": 3,
        "hull": 3,
        "shield": 2,
        "actions": [
            [
                "foc",
                "bar"
            ],
            [
                "tlk",
                ""
            ],
            [
                "bar",
                ""
            ],
            [
                "",
                ""
            ],
            [
                "",
                ""
            ]
        ],
        "shipAbility": "** * ADVANCED TARGETING COMPUTER * ** : While you perform a primary attack against a defender you have locked, roll 1 additional attack die and change 1 !hit result to a !crh result."
    },
    "tiefighter": {
        "attack_front": 2,
        "attack_rear": 0,
        "attack_singleMobile": 0,
        "attack_doubleMobile": 0,
        "agility": 3,
        "hull": 3,
        "shield": 0,
        "actions": [
            [
                "foc",
                ""
            ],
            [
                "eva",
                ""
            ],
            [
                "bar",
                ""
            ],
            [
                "",
                ""
            ],
            [
                "",
                ""
            ]
        ],
        "shipAbility": ""
    },
    "tiefofighter": {
        "attack_front": 2,
        "attack_rear": 0,
        "attack_singleMobile": 0,
        "attack_doubleMobile": 0,
        "agility": 3,
        "hull": 3,
        "shield": 1,
        "actions": [
            [
                "foc",
                ""
            ],
            [
                "eva",
                ""
            ],
            [
                "tlk",
                ""
            ],
            [
                "bar",
                ""
            ],
            [
                "",
                ""
            ]
        ],
        "shipAbility": ""
    },
    "tieinterceptor": {
        "attack_front": 3,
        "attack_rear": 0,
        "attack_singleMobile": 0,
        "attack_doubleMobile": 0,
        "agility": 3,
        "hull": 3,
        "shield": 0,
        "actions": [
            [
                "foc",
                ""
            ],
            [
                "eva",
                ""
            ],
            [
                "bar",
                ""
            ],
            [
                "boo",
                ""
            ],
            [
                "",
                ""
            ]
        ],
        "shipAbility": "** * AUTOTHRUSTERS * ** : After you perform an action, you may perform a red !bar or red !boo"
    },
    "xwing": {
        "attack_front": 3,
        "attack_rear": 0,
        "attack_singleMobile": 0,
        "attack_doubleMobile": 0,
        "agility": 3,
        "hull": 4,
        "shield": 2,
        "actions": [
            [
                "foc",
                ""
            ],
            [
                "tlk",
                ""
            ],
            [
                "bar",
                ""
            ],
            [
                "",
                ""
            ],
            [
                "",
                ""
            ]
        ],
        "shipAbility": ""
    }
}
